{
  "development": {
    "username": "developer",
    "password": "dev",
    "database": "assignment_fsw",
    "host": "127.0.0.1",
    "dialect": "postgres"
  },
  "test": {
    "username": "developer",
    "password": "dev",
    "database": "assignment_fsw",
    "host": "127.0.0.1",
    "dialect": "postgres"
  },
  "production": {
    "username": "developer",
    "password": "dev",
    "database": "assignment_fsw",
    "host": "127.0.0.1",
    "dialect": "postgres"
  }
}